{
  "project_info": {
    "project_number": "401592951401",
    "project_id": "my-doctro-hero",
    "storage_bucket": "my-doctro-hero.appspot.com"
  },
  "client": [
    {
      "client_info": {
        "mobilesdk_app_id": "1:401592951401:android:92f840cd5086734a0f78f8",
        "android_client_info": {
          "package_name": "com.grupo8.mydoctorhero"
        }
      },
      "oauth_client": [
        {
          "client_id": "401592951401-tvf946igp2p43gsinosh2p7ev9darhkf.apps.googleusercontent.com",
          "client_type": 3
        }
      ],
      "api_key": [
        {
          "current_key": "AIzaSyCJp8bJR7sMY-SRMAKO8Mb4WSrk92GEFac"
        }
      ],
      "services": {
        "appinvite_service": {
          "other_platform_oauth_client": [
            {
              "client_id": "401592951401-tvf946igp2p43gsinosh2p7ev9darhkf.apps.googleusercontent.com",
              "client_type": 3
            }
          ]
        }
      }
    }
  ],
  "configuration_version": "1"
}